{
  "configVersion": 2,
  "packages": [
    {
      "name": "_fe_analyzer_shared",
      "rootUri": "file:///Users/imajisanggasaputra/Documents/flutter/.pub-cache/hosted/pub.dartlang.org/_fe_analyzer_shared-36.0.0",
      "packageUri": "lib/",
      "languageVersion": "2.12"
    },
    {
      "name": "analyzer",
      "rootUri": "file:///Users/imajisanggasaputra/Documents/flutter/.pub-cache/hosted/pub.dartlang.org/analyzer-3.3.1",
      "packageUri": "lib/",
      "languageVersion": "2.14"
    },
    {
      "name": "animations",
      "rootUri": "file:///Users/imajisanggasaputra/Documents/flutter/.pub-cache/hosted/pub.dartlang.org/animations-2.0.2",
      "packageUri": "lib/",
      "languageVersion": "2.12"
    },
    {
      "name": "args",
      "rootUri": "file:///Users/imajisanggasaputra/Documents/flutter/.pub-cache/hosted/pub.dartlang.org/args-2.3.0",
      "packageUri": "lib/",
      "languageVersion": "2.12"
    },
    {
      "name": "async",
      "rootUri": "file:///Users/imajisanggasaputra/Documents/flutter/.pub-cache/hosted/pub.dartlang.org/async-2.8.2",
      "packageUri": "lib/",
      "languageVersion": "2.12"
    },
    {
      "name": "boolean_selector",
      "rootUri": "file:///Users/imajisanggasaputra/Documents/flutter/.pub-cache/hosted/pub.dartlang.org/boolean_selector-2.1.0",
      "packageUri": "lib/",
      "languageVersion": "2.12"
    },
    {
      "name": "characters",
      "rootUri": "file:///Users/imajisanggasaputra/Documents/flutter/.pub-cache/hosted/pub.dartlang.org/characters-1.2.0",
      "packageUri": "lib/",
      "languageVersion": "2.12"
    },
    {
      "name": "charcode",
      "rootUri": "file:///Users/imajisanggasaputra/Documents/flutter/.pub-cache/hosted/pub.dartlang.org/charcode-1.3.1",
      "packageUri": "lib/",
      "languageVersion": "2.12"
    },
    {
      "name": "clock",
      "rootUri": "file:///Users/imajisanggasaputra/Documents/flutter/.pub-cache/hosted/pub.dartlang.org/clock-1.1.0",
      "packageUri": "lib/",
      "languageVersion": "2.12"
    },
    {
      "name": "collection",
      "rootUri": "file:///Users/imajisanggasaputra/Documents/flutter/.pub-cache/hosted/pub.dartlang.org/collection-1.16.0",
      "packageUri": "lib/",
      "languageVersion": "2.12"
    },
    {
      "name": "convert",
      "rootUri": "file:///Users/imajisanggasaputra/Documents/flutter/.pub-cache/hosted/pub.dartlang.org/convert-3.0.1",
      "packageUri": "lib/",
      "languageVersion": "2.12"
    },
    {
      "name": "crypto",
      "rootUri": "file:///Users/imajisanggasaputra/Documents/flutter/.pub-cache/hosted/pub.dartlang.org/crypto-3.0.1",
      "packageUri": "lib/",
      "languageVersion": "2.12"
    },
    {
      "name": "csslib",
      "rootUri": "file:///Users/imajisanggasaputra/Documents/flutter/.pub-cache/hosted/pub.dartlang.org/csslib-0.17.1",
      "packageUri": "lib/",
      "languageVersion": "2.12"
    },
    {
      "name": "cupertino_icons",
      "rootUri": "file:///Users/imajisanggasaputra/Documents/flutter/.pub-cache/hosted/pub.dartlang.org/cupertino_icons-1.0.4",
      "packageUri": "lib/",
      "languageVersion": "2.12"
    },
    {
      "name": "dart_style",
      "rootUri": "file:///Users/imajisanggasaputra/Documents/flutter/.pub-cache/hosted/pub.dartlang.org/dart_style-2.2.2",
      "packageUri": "lib/",
      "languageVersion": "2.12"
    },
    {
      "name": "fake_async",
      "rootUri": "file:///Users/imajisanggasaputra/Documents/flutter/.pub-cache/hosted/pub.dartlang.org/fake_async-1.3.0",
      "packageUri": "lib/",
      "languageVersion": "2.12"
    },
    {
      "name": "ffi",
      "rootUri": "file:///Users/imajisanggasaputra/Documents/flutter/.pub-cache/hosted/pub.dartlang.org/ffi-1.1.2",
      "packageUri": "lib/",
      "languageVersion": "2.12"
    },
    {
      "name": "file",
      "rootUri": "file:///Users/imajisanggasaputra/Documents/flutter/.pub-cache/hosted/pub.dartlang.org/file-6.1.2",
      "packageUri": "lib/",
      "languageVersion": "2.12"
    },
    {
      "name": "flutter",
      "rootUri": "file:///Users/imajisanggasaputra/Documents/flutter/packages/flutter",
      "packageUri": "lib/",
      "languageVersion": "2.12"
    },
    {
      "name": "flutter_image_slideshow",
      "rootUri": "file:///Users/imajisanggasaputra/Documents/flutter/.pub-cache/hosted/pub.dartlang.org/flutter_image_slideshow-0.1.2",
      "packageUri": "lib/",
      "languageVersion": "2.12"
    },
    {
      "name": "flutter_lints",
      "rootUri": "file:///Users/imajisanggasaputra/Documents/flutter/.pub-cache/hosted/pub.dartlang.org/flutter_lints-1.0.4",
      "packageUri": "lib/",
      "languageVersion": "2.12"
    },
    {
      "name": "flutter_plugin_android_lifecycle",
      "rootUri": "file:///Users/imajisanggasaputra/Documents/flutter/.pub-cache/hosted/pub.dartlang.org/flutter_plugin_android_lifecycle-2.0.6",
      "packageUri": "lib/",
      "languageVersion": "2.12"
    },
    {
      "name": "flutter_test",
      "rootUri": "file:///Users/imajisanggasaputra/Documents/flutter/packages/flutter_test",
      "packageUri": "lib/",
      "languageVersion": "2.17"
    },
    {
      "name": "flutter_web_plugins",
      "rootUri": "file:///Users/imajisanggasaputra/Documents/flutter/packages/flutter_web_plugins",
      "packageUri": "lib/",
      "languageVersion": "2.17"
    },
    {
      "name": "font_awesome_flutter",
      "rootUri": "file:///Users/imajisanggasaputra/Documents/flutter/.pub-cache/hosted/pub.dartlang.org/font_awesome_flutter-9.2.0",
      "packageUri": "lib/",
      "languageVersion": "2.12"
    },
    {
      "name": "glob",
      "rootUri": "file:///Users/imajisanggasaputra/Documents/flutter/.pub-cache/hosted/pub.dartlang.org/glob-2.0.2",
      "packageUri": "lib/",
      "languageVersion": "2.14"
    },
    {
      "name": "google_fonts",
      "rootUri": "file:///Users/imajisanggasaputra/Documents/flutter/.pub-cache/hosted/pub.dartlang.org/google_fonts-2.3.1",
      "packageUri": "lib/",
      "languageVersion": "2.12"
    },
    {
      "name": "google_maps",
      "rootUri": "file:///Users/imajisanggasaputra/Documents/flutter/.pub-cache/hosted/pub.dartlang.org/google_maps-6.2.0",
      "packageUri": "lib/",
      "languageVersion": "2.12"
    },
    {
      "name": "google_maps_flutter",
      "rootUri": "file:///Users/imajisanggasaputra/Documents/flutter/.pub-cache/hosted/pub.dartlang.org/google_maps_flutter-2.1.8",
      "packageUri": "lib/",
      "languageVersion": "2.14"
    },
    {
      "name": "google_maps_flutter_platform_interface",
      "rootUri": "file:///Users/imajisanggasaputra/Documents/flutter/.pub-cache/hosted/pub.dartlang.org/google_maps_flutter_platform_interface-2.2.0",
      "packageUri": "lib/",
      "languageVersion": "2.12"
    },
    {
      "name": "google_maps_flutter_web",
      "rootUri": "file:///Users/imajisanggasaputra/Documents/flutter/.pub-cache/hosted/pub.dartlang.org/google_maps_flutter_web-0.4.0",
      "packageUri": "lib/",
      "languageVersion": "2.12"
    },
    {
      "name": "html",
      "rootUri": "file:///Users/imajisanggasaputra/Documents/flutter/.pub-cache/hosted/pub.dartlang.org/html-0.15.0",
      "packageUri": "lib/",
      "languageVersion": "2.12"
    },
    {
      "name": "http",
      "rootUri": "file:///Users/imajisanggasaputra/Documents/flutter/.pub-cache/hosted/pub.dartlang.org/http-0.13.4",
      "packageUri": "lib/",
      "languageVersion": "2.14"
    },
    {
      "name": "http_parser",
      "rootUri": "file:///Users/imajisanggasaputra/Documents/flutter/.pub-cache/hosted/pub.dartlang.org/http_parser-4.0.0",
      "packageUri": "lib/",
      "languageVersion": "2.12"
    },
    {
      "name": "js",
      "rootUri": "file:///Users/imajisanggasaputra/Documents/flutter/.pub-cache/hosted/pub.dartlang.org/js-0.6.4",
      "packageUri": "lib/",
      "languageVersion": "2.16"
    },
    {
      "name": "js_wrapping",
      "rootUri": "file:///Users/imajisanggasaputra/Documents/flutter/.pub-cache/hosted/pub.dartlang.org/js_wrapping-0.7.4",
      "packageUri": "lib/",
      "languageVersion": "2.12"
    },
    {
      "name": "lints",
      "rootUri": "file:///Users/imajisanggasaputra/Documents/flutter/.pub-cache/hosted/pub.dartlang.org/lints-1.0.1",
      "packageUri": "lib/",
      "languageVersion": "2.12"
    },
    {
      "name": "matcher",
      "rootUri": "file:///Users/imajisanggasaputra/Documents/flutter/.pub-cache/hosted/pub.dartlang.org/matcher-0.12.11",
      "packageUri": "lib/",
      "languageVersion": "2.12"
    },
    {
      "name": "material_color_utilities",
      "rootUri": "file:///Users/imajisanggasaputra/Documents/flutter/.pub-cache/hosted/pub.dartlang.org/material_color_utilities-0.1.4",
      "packageUri": "lib/",
      "languageVersion": "2.13"
    },
    {
      "name": "meta",
      "rootUri": "file:///Users/imajisanggasaputra/Documents/flutter/.pub-cache/hosted/pub.dartlang.org/meta-1.7.0",
      "packageUri": "lib/",
      "languageVersion": "2.12"
    },
    {
      "name": "package_config",
      "rootUri": "file:///Users/imajisanggasaputra/Documents/flutter/.pub-cache/hosted/pub.dartlang.org/package_config-2.0.2",
      "packageUri": "lib/",
      "languageVersion": "2.12"
    },
    {
      "name": "path",
      "rootUri": "file:///Users/imajisanggasaputra/Documents/flutter/.pub-cache/hosted/pub.dartlang.org/path-1.8.1",
      "packageUri": "lib/",
      "languageVersion": "2.12"
    },
    {
      "name": "path_provider",
      "rootUri": "file:///Users/imajisanggasaputra/Documents/flutter/.pub-cache/hosted/pub.dartlang.org/path_provider-2.0.9",
      "packageUri": "lib/",
      "languageVersion": "2.14"
    },
    {
      "name": "path_provider_android",
      "rootUri": "file:///Users/imajisanggasaputra/Documents/flutter/.pub-cache/hosted/pub.dartlang.org/path_provider_android-2.0.11",
      "packageUri": "lib/",
      "languageVersion": "2.14"
    },
    {
      "name": "path_provider_ios",
      "rootUri": "file:///Users/imajisanggasaputra/Documents/flutter/.pub-cache/hosted/pub.dartlang.org/path_provider_ios-2.0.7",
      "packageUri": "lib/",
      "languageVersion": "2.14"
    },
    {
      "name": "path_provider_linux",
      "rootUri": "file:///Users/imajisanggasaputra/Documents/flutter/.pub-cache/hosted/pub.dartlang.org/path_provider_linux-2.1.5",
      "packageUri": "lib/",
      "languageVersion": "2.12"
    },
    {
      "name": "path_provider_macos",
      "rootUri": "file:///Users/imajisanggasaputra/Documents/flutter/.pub-cache/hosted/pub.dartlang.org/path_provider_macos-2.0.5",
      "packageUri": "lib/",
      "languageVersion": "2.12"
    },
    {
      "name": "path_provider_platform_interface",
      "rootUri": "file:///Users/imajisanggasaputra/Documents/flutter/.pub-cache/hosted/pub.dartlang.org/path_provider_platform_interface-2.0.3",
      "packageUri": "lib/",
      "languageVersion": "2.12"
    },
    {
      "name": "path_provider_windows",
      "rootUri": "file:///Users/imajisanggasaputra/Documents/flutter/.pub-cache/hosted/pub.dartlang.org/path_provider_windows-2.0.5",
      "packageUri": "lib/",
      "languageVersion": "2.12"
    },
    {
      "name": "platform",
      "rootUri": "file:///Users/imajisanggasaputra/Documents/flutter/.pub-cache/hosted/pub.dartlang.org/platform-3.1.0",
      "packageUri": "lib/",
      "languageVersion": "2.12"
    },
    {
      "name": "plugin_platform_interface",
      "rootUri": "file:///Users/imajisanggasaputra/Documents/flutter/.pub-cache/hosted/pub.dartlang.org/plugin_platform_interface-2.1.2",
      "packageUri": "lib/",
      "languageVersion": "2.12"
    },
    {
      "name": "process",
      "rootUri": "file:///Users/imajisanggasaputra/Documents/flutter/.pub-cache/hosted/pub.dartlang.org/process-4.2.4",
      "packageUri": "lib/",
      "languageVersion": "2.14"
    },
    {
      "name": "pub_semver",
      "rootUri": "file:///Users/imajisanggasaputra/Documents/flutter/.pub-cache/hosted/pub.dartlang.org/pub_semver-2.1.1",
      "packageUri": "lib/",
      "languageVersion": "2.12"
    },
    {
      "name": "pwa",
      "rootUri": "file:///Users/imajisanggasaputra/Documents/flutter/.pub-cache/hosted/pub.dartlang.org/pwa-0.2.1",
      "packageUri": "lib/",
      "languageVersion": "2.0"
    },
    {
      "name": "responsive_framework",
      "rootUri": "../responsive_framework",
      "packageUri": "lib/",
      "languageVersion": "2.12"
    },
    {
      "name": "sanitize_html",
      "rootUri": "file:///Users/imajisanggasaputra/Documents/flutter/.pub-cache/hosted/pub.dartlang.org/sanitize_html-2.0.0",
      "packageUri": "lib/",
      "languageVersion": "2.12"
    },
    {
      "name": "service_worker",
      "rootUri": "file:///Users/imajisanggasaputra/Documents/flutter/.pub-cache/hosted/pub.dartlang.org/service_worker-0.2.4",
      "packageUri": "lib/",
      "languageVersion": "2.0"
    },
    {
      "name": "sky_engine",
      "rootUri": "file:///Users/imajisanggasaputra/Documents/flutter/bin/cache/pkg/sky_engine",
      "packageUri": "lib/",
      "languageVersion": "2.12"
    },
    {
      "name": "source_span",
      "rootUri": "file:///Users/imajisanggasaputra/Documents/flutter/.pub-cache/hosted/pub.dartlang.org/source_span-1.8.2",
      "packageUri": "lib/",
      "languageVersion": "2.14"
    },
    {
      "name": "stack_trace",
      "rootUri": "file:///Users/imajisanggasaputra/Documents/flutter/.pub-cache/hosted/pub.dartlang.org/stack_trace-1.10.0",
      "packageUri": "lib/",
      "languageVersion": "2.12"
    },
    {
      "name": "stream_channel",
      "rootUri": "file:///Users/imajisanggasaputra/Documents/flutter/.pub-cache/hosted/pub.dartlang.org/stream_channel-2.1.0",
      "packageUri": "lib/",
      "languageVersion": "2.12"
    },
    {
      "name": "stream_transform",
      "rootUri": "file:///Users/imajisanggasaputra/Documents/flutter/.pub-cache/hosted/pub.dartlang.org/stream_transform-2.0.0",
      "packageUri": "lib/",
      "languageVersion": "2.12"
    },
    {
      "name": "string_scanner",
      "rootUri": "file:///Users/imajisanggasaputra/Documents/flutter/.pub-cache/hosted/pub.dartlang.org/string_scanner-1.1.0",
      "packageUri": "lib/",
      "languageVersion": "2.12"
    },
    {
      "name": "term_glyph",
      "rootUri": "file:///Users/imajisanggasaputra/Documents/flutter/.pub-cache/hosted/pub.dartlang.org/term_glyph-1.2.0",
      "packageUri": "lib/",
      "languageVersion": "2.12"
    },
    {
      "name": "test_api",
      "rootUri": "file:///Users/imajisanggasaputra/Documents/flutter/.pub-cache/hosted/pub.dartlang.org/test_api-0.4.9",
      "packageUri": "lib/",
      "languageVersion": "2.12"
    },
    {
      "name": "typed_data",
      "rootUri": "file:///Users/imajisanggasaputra/Documents/flutter/.pub-cache/hosted/pub.dartlang.org/typed_data-1.3.0",
      "packageUri": "lib/",
      "languageVersion": "2.12"
    },
    {
      "name": "universal_html",
      "rootUri": "file:///Users/imajisanggasaputra/Documents/flutter/.pub-cache/hosted/pub.dartlang.org/universal_html-2.0.8",
      "packageUri": "lib/",
      "languageVersion": "2.12"
    },
    {
      "name": "universal_io",
      "rootUri": "file:///Users/imajisanggasaputra/Documents/flutter/.pub-cache/hosted/pub.dartlang.org/universal_io-2.0.4",
      "packageUri": "lib/",
      "languageVersion": "2.12"
    },
    {
      "name": "url_launcher",
      "rootUri": "file:///Users/imajisanggasaputra/Documents/flutter/.pub-cache/hosted/pub.dartlang.org/url_launcher-6.0.20",
      "packageUri": "lib/",
      "languageVersion": "2.14"
    },
    {
      "name": "url_launcher_android",
      "rootUri": "file:///Users/imajisanggasaputra/Documents/flutter/.pub-cache/hosted/pub.dartlang.org/url_launcher_android-6.0.15",
      "packageUri": "lib/",
      "languageVersion": "2.14"
    },
    {
      "name": "url_launcher_ios",
      "rootUri": "file:///Users/imajisanggasaputra/Documents/flutter/.pub-cache/hosted/pub.dartlang.org/url_launcher_ios-6.0.15",
      "packageUri": "lib/",
      "languageVersion": "2.14"
    },
    {
      "name": "url_launcher_linux",
      "rootUri": "file:///Users/imajisanggasaputra/Documents/flutter/.pub-cache/hosted/pub.dartlang.org/url_launcher_linux-3.0.0",
      "packageUri": "lib/",
      "languageVersion": "2.12"
    },
    {
      "name": "url_launcher_macos",
      "rootUri": "file:///Users/imajisanggasaputra/Documents/flutter/.pub-cache/hosted/pub.dartlang.org/url_launcher_macos-3.0.0",
      "packageUri": "lib/",
      "languageVersion": "2.12"
    },
    {
      "name": "url_launcher_platform_interface",
      "rootUri": "file:///Users/imajisanggasaputra/Documents/flutter/.pub-cache/hosted/pub.dartlang.org/url_launcher_platform_interface-2.0.5",
      "packageUri": "lib/",
      "languageVersion": "2.12"
    },
    {
      "name": "url_launcher_web",
      "rootUri": "file:///Users/imajisanggasaputra/Documents/flutter/.pub-cache/hosted/pub.dartlang.org/url_launcher_web-2.0.8",
      "packageUri": "lib/",
      "languageVersion": "2.12"
    },
    {
      "name": "url_launcher_windows",
      "rootUri": "file:///Users/imajisanggasaputra/Documents/flutter/.pub-cache/hosted/pub.dartlang.org/url_launcher_windows-3.0.0",
      "packageUri": "lib/",
      "languageVersion": "2.12"
    },
    {
      "name": "vector_math",
      "rootUri": "file:///Users/imajisanggasaputra/Documents/flutter/.pub-cache/hosted/pub.dartlang.org/vector_math-2.1.2",
      "packageUri": "lib/",
      "languageVersion": "2.14"
    },
    {
      "name": "video_player",
      "rootUri": "file:///Users/imajisanggasaputra/Documents/flutter/.pub-cache/hosted/pub.dartlang.org/video_player-2.2.18",
      "packageUri": "lib/",
      "languageVersion": "2.14"
    },
    {
      "name": "video_player_android",
      "rootUri": "file:///Users/imajisanggasaputra/Documents/flutter/.pub-cache/hosted/pub.dartlang.org/video_player_android-2.2.17",
      "packageUri": "lib/",
      "languageVersion": "2.14"
    },
    {
      "name": "video_player_avfoundation",
      "rootUri": "file:///Users/imajisanggasaputra/Documents/flutter/.pub-cache/hosted/pub.dartlang.org/video_player_avfoundation-2.2.18",
      "packageUri": "lib/",
      "languageVersion": "2.14"
    },
    {
      "name": "video_player_platform_interface",
      "rootUri": "file:///Users/imajisanggasaputra/Documents/flutter/.pub-cache/hosted/pub.dartlang.org/video_player_platform_interface-5.0.2",
      "packageUri": "lib/",
      "languageVersion": "2.12"
    },
    {
      "name": "video_player_web",
      "rootUri": "file:///Users/imajisanggasaputra/Documents/flutter/.pub-cache/hosted/pub.dartlang.org/video_player_web-2.0.7",
      "packageUri": "lib/",
      "languageVersion": "2.12"
    },
    {
      "name": "watcher",
      "rootUri": "file:///Users/imajisanggasaputra/Documents/flutter/.pub-cache/hosted/pub.dartlang.org/watcher-1.0.1",
      "packageUri": "lib/",
      "languageVersion": "2.14"
    },
    {
      "name": "webview_flutter",
      "rootUri": "file:///Users/imajisanggasaputra/Documents/flutter/.pub-cache/hosted/pub.dartlang.org/webview_flutter-3.0.0",
      "packageUri": "lib/",
      "languageVersion": "2.14"
    },
    {
      "name": "webview_flutter_android",
      "rootUri": "file:///Users/imajisanggasaputra/Documents/flutter/.pub-cache/hosted/pub.dartlang.org/webview_flutter_android-2.8.2",
      "packageUri": "lib/",
      "languageVersion": "2.14"
    },
    {
      "name": "webview_flutter_platform_interface",
      "rootUri": "file:///Users/imajisanggasaputra/Documents/flutter/.pub-cache/hosted/pub.dartlang.org/webview_flutter_platform_interface-1.8.1",
      "packageUri": "lib/",
      "languageVersion": "2.12"
    },
    {
      "name": "webview_flutter_wkwebview",
      "rootUri": "file:///Users/imajisanggasaputra/Documents/flutter/.pub-cache/hosted/pub.dartlang.org/webview_flutter_wkwebview-2.7.1",
      "packageUri": "lib/",
      "languageVersion": "2.14"
    },
    {
      "name": "win32",
      "rootUri": "file:///Users/imajisanggasaputra/Documents/flutter/.pub-cache/hosted/pub.dartlang.org/win32-2.3.11",
      "packageUri": "lib/",
      "languageVersion": "2.15"
    },
    {
      "name": "xdg_directories",
      "rootUri": "file:///Users/imajisanggasaputra/Documents/flutter/.pub-cache/hosted/pub.dartlang.org/xdg_directories-0.2.0+1",
      "packageUri": "lib/",
      "languageVersion": "2.12"
    },
    {
      "name": "yaml",
      "rootUri": "file:///Users/imajisanggasaputra/Documents/flutter/.pub-cache/hosted/pub.dartlang.org/yaml-3.1.0",
      "packageUri": "lib/",
      "languageVersion": "2.12"
    },
    {
      "name": "ekossystem",
      "rootUri": "../",
      "packageUri": "lib/",
      "languageVersion": "2.16"
    }
  ],
  "generated": "2022-06-21T02:47:09.230903Z",
  "generator": "pub",
  "generatorVersion": "2.17.1"
}
